<svg xmlns="http://www.w3.org/2000/svg" width="24" height="24" viewBox="0 0 24 24">
    <g fill="none" fill-rule="evenodd" stroke="#1C1C1C">
        <rect width="10" height="7" x=".5" y=".5" rx="2"/>
        <rect width="10" height="7" x="13.5" y="16.5" rx="2"/>
        <rect width="10" height="13" x=".5" y="10.5" rx="2"/>
        <rect width="10" height="13" x="13.5" y=".5" rx="2"/>
    </g>
</svg>
